_partition,_aspect,_key,_type,_value
Column,access_cover_tempering,displayChoicesList,object,"[{""choice_list_name"":""yes_no_unable"",""data_value"":""yes"",""display"":{""title"":{""text"":""yes""}},""_row_num"":83},{""choice_list_name"":""yes_no_unable"",""data_value"":""no"",""display"":{""title"":{""text"":""no""}},""_row_num"":84},{""choice_list_name"":""yes_no_unable"",""data_value"":""unable to determine"",""display"":{""title"":{""text"":""unable to determine""}},""_row_num"":85}]"
Column,component_failure,displayChoicesList,object,"[{""choice_list_name"":""component"",""data_value"":""basket"",""display"":{""title"":{""text"":""basket""}},""_row_num"":101},{""choice_list_name"":""component"",""data_value"":""battery"",""display"":{""title"":{""text"":""battery""}},""_row_num"":102},{""choice_list_name"":""component"",""data_value"":""battery terminal"",""display"":{""title"":{""text"":""battery terminal""}},""_row_num"":103},{""choice_list_name"":""component"",""data_value"":""battery voltmeter"",""display"":{""title"":{""text"":""battery voltmeter""}},""_row_num"":104},{""choice_list_name"":""component"",""data_value"":""burner/boiler"",""display"":{""title"":{""text"":""burner/boiler""}},""_row_num"":105},{""choice_list_name"":""component"",""data_value"":""cabinet"",""display"":{""title"":{""text"":""cabinet""}},""_row_num"":106},{""choice_list_name"":""component"",""data_value"":""capacitor"",""display"":{""title"":{""text"":""capacitor""}},""_row_num"":107},{""choice_list_name"":""component"",""data_value"":""capillary tube"",""display"":{""title"":{""text"":""capillary tube""}},""_row_num"":108},{""choice_list_name"":""component"",""data_value"":""circuit breaker"",""display"":{""title"":{""text"":""circuit breaker""}},""_row_num"":109},{""choice_list_name"":""component"",""data_value"":""combiner"",""display"":{""title"":{""text"":""combiner""}},""_row_num"":110},{""choice_list_name"":""component"",""data_value"":""compressor"",""display"":{""title"":{""text"":""compressor""}},""_row_num"":111},{""choice_list_name"":""component"",""data_value"":""compressor electronic unit"",""display"":{""title"":{""text"":""compressor electronic unit""}},""_row_num"":112},{""choice_list_name"":""component"",""data_value"":""condenser"",""display"":{""title"":{""text"":""condenser""}},""_row_num"":113},{""choice_list_name"":""component"",""data_value"":""control panel"",""display"":{""title"":{""text"":""control panel""}},""_row_num"":114},{""choice_list_name"":""component"",""data_value"":""coupler system"",""display"":{""title"":{""text"":""coupler system""}},""_row_num"":115},{""choice_list_name"":""component"",""data_value"":""display"",""display"":{""title"":{""text"":""display""}},""_row_num"":116},{""choice_list_name"":""component"",""data_value"":""door"",""display"":{""title"":{""text"":""door""}},""_row_num"":117},{""choice_list_name"":""component"",""data_value"":""drier"",""display"":{""title"":{""text"":""drier""}},""_row_num"":118},{""choice_list_name"":""component"",""data_value"":""energy harvest control"",""display"":{""title"":{""text"":""energy harvest control""}},""_row_num"":119},{""choice_list_name"":""component"",""data_value"":""evaporator"",""display"":{""title"":{""text"":""evaporator""}},""_row_num"":120},{""choice_list_name"":""component"",""data_value"":""fan"",""display"":{""title"":{""text"":""fan""}},""_row_num"":121},{""choice_list_name"":""component"",""data_value"":""firmware"",""display"":{""title"":{""text"":""firmware""}},""_row_num"":122},{""choice_list_name"":""component"",""data_value"":""flue"",""display"":{""title"":{""text"":""flue""}},""_row_num"":123},{""choice_list_name"":""component"",""data_value"":""flue baffle"",""display"":{""title"":{""text"":""flue baffle""}},""_row_num"":124},{""choice_list_name"":""component"",""data_value"":""freezer compartment"",""display"":{""title"":{""text"":""freezer compartment""}},""_row_num"":125},{""choice_list_name"":""component"",""data_value"":""fuse"",""display"":{""title"":{""text"":""fuse""}},""_row_num"":126},{""choice_list_name"":""component"",""data_value"":""gasket"",""display"":{""title"":{""text"":""gasket""}},""_row_num"":127},{""choice_list_name"":""component"",""data_value"":""handle"",""display"":{""title"":{""text"":""handle""}},""_row_num"":128},{""choice_list_name"":""component"",""data_value"":""heater"",""display"":{""title"":{""text"":""heater""}},""_row_num"":129},{""choice_list_name"":""component"",""data_value"":""hinge"",""display"":{""title"":{""text"":""hinge""}},""_row_num"":130},{""choice_list_name"":""component"",""data_value"":""hinge cover"",""display"":{""title"":{""text"":""hinge cover""}},""_row_num"":131},{""choice_list_name"":""component"",""data_value"":""holdover gauge"",""display"":{""title"":{""text"":""holdover gauge""}},""_row_num"":132},{""choice_list_name"":""component"",""data_value"":""indicator light"",""display"":{""title"":{""text"":""indicator light""}},""_row_num"":133},{""choice_list_name"":""component"",""data_value"":""interconnect (electrical)"",""display"":{""title"":{""text"":""interconnect (electrical)""}},""_row_num"":134},{""choice_list_name"":""component"",""data_value"":""lamp (absorption)"",""display"":{""title"":{""text"":""lamp (absorption)""}},""_row_num"":135},{""choice_list_name"":""component"",""data_value"":""lid"",""display"":{""title"":{""text"":""lid""}},""_row_num"":136},{""choice_list_name"":""component"",""data_value"":""monitoring device"",""display"":{""title"":{""text"":""monitoring device""}},""_row_num"":137},{""choice_list_name"":""component"",""data_value"":""mounting hardware"",""display"":{""title"":{""text"":""mounting hardware""}},""_row_num"":138},{""choice_list_name"":""component"",""data_value"":""on/off switch"",""display"":{""title"":{""text"":""on/off switch""}},""_row_num"":139},{""choice_list_name"":""component"",""data_value"":""phase change material (PCM)"",""display"":{""title"":{""text"":""phase change material (PCM)""}},""_row_num"":140},{""choice_list_name"":""component"",""data_value"":""piping"",""display"":{""title"":{""text"":""piping""}},""_row_num"":141},{""choice_list_name"":""component"",""data_value"":""power adapter"",""display"":{""title"":{""text"":""power adapter""}},""_row_num"":142},{""choice_list_name"":""component"",""data_value"":""power cable"",""display"":{""title"":{""text"":""power cable""}},""_row_num"":143},{""choice_list_name"":""component"",""data_value"":""power cable connector"",""display"":{""title"":{""text"":""power cable connector""}},""_row_num"":144},{""choice_list_name"":""component"",""data_value"":""remote temperature monitoring device (RTMD)"",""display"":{""title"":{""text"":""remote temperature monitoring device (RTMD)""}},""_row_num"":145},{""choice_list_name"":""component"",""data_value"":""refrigerant"",""display"":{""title"":{""text"":""refrigerant""}},""_row_num"":146},{""choice_list_name"":""component"",""data_value"":""removable insulation"",""display"":{""title"":{""text"":""removable insulation""}},""_row_num"":147},{""choice_list_name"":""component"",""data_value"":""safety valve"",""display"":{""title"":{""text"":""safety valve""}},""_row_num"":148},{""choice_list_name"":""component"",""data_value"":""seal (sealant)"",""display"":{""title"":{""text"":""seal (sealant)""}},""_row_num"":149},{""choice_list_name"":""component"",""data_value"":""sensor"",""display"":{""title"":{""text"":""sensor""}},""_row_num"":150},{""choice_list_name"":""component"",""data_value"":""SD card"",""display"":{""title"":{""text"":""SD card""}},""_row_num"":151},{""choice_list_name"":""component"",""data_value"":""shelf"",""display"":{""title"":{""text"":""shelf""}},""_row_num"":152},{""choice_list_name"":""component"",""data_value"":""SIM card"",""display"":{""title"":{""text"":""SIM card""}},""_row_num"":153},{""choice_list_name"":""component"",""data_value"":""software"",""display"":{""title"":{""text"":""software""}},""_row_num"":154},{""choice_list_name"":""component"",""data_value"":""solar array"",""display"":{""title"":{""text"":""solar array""}},""_row_num"":155},{""choice_list_name"":""component"",""data_value"":""solar array cable"",""display"":{""title"":{""text"":""solar array cable""}},""_row_num"":156},{""choice_list_name"":""component"",""data_value"":""solar cell"",""display"":{""title"":{""text"":""solar cell""}},""_row_num"":157},{""choice_list_name"":""component"",""data_value"":""solar module"",""display"":{""title"":{""text"":""solar module""}},""_row_num"":158},{""choice_list_name"":""component"",""data_value"":""solar support structure"",""display"":{""title"":{""text"":""solar support structure""}},""_row_num"":159},{""choice_list_name"":""component"",""data_value"":""solar power system"",""display"":{""title"":{""text"":""solar power system""}},""_row_num"":160},{""choice_list_name"":""component"",""data_value"":""starter relay"",""display"":{""title"":{""text"":""starter relay""}},""_row_num"":161},{""choice_list_name"":""component"",""data_value"":""status indicator - audible alarm"",""display"":{""title"":{""text"":""status indicator - audible alarm""}},""_row_num"":162},{""choice_list_name"":""component"",""data_value"":""status indicator - autonomy gauge"",""display"":{""title"":{""text"":""status indicator - autonomy gauge""}},""_row_num"":163},{""choice_list_name"":""component"",""data_value"":""status indicator - door opening"",""display"":{""title"":{""text"":""status indicator - door opening""}},""_row_num"":164},{""choice_list_name"":""component"",""data_value"":""status indicator - holdover gauge"",""display"":{""title"":{""text"":""status indicator - holdover gauge""}},""_row_num"":165},{""choice_list_name"":""component"",""data_value"":""status indicator - LED"",""display"":{""title"":{""text"":""status indicator - LED""}},""_row_num"":166},{""choice_list_name"":""component"",""data_value"":""status indicator - voltage"",""display"":{""title"":{""text"":""status indicator - voltage""}},""_row_num"":167},{""choice_list_name"":""component"",""data_value"":""theft deterrent fastener"",""display"":{""title"":{""text"":""theft deterrent fastener""}},""_row_num"":168},{""choice_list_name"":""component"",""data_value"":""thermal storage"",""display"":{""title"":{""text"":""thermal storage""}},""_row_num"":169},{""choice_list_name"":""component"",""data_value"":""thermocouple"",""display"":{""title"":{""text"":""thermocouple""}},""_row_num"":170},{""choice_list_name"":""component"",""data_value"":""thermometer"",""display"":{""title"":{""text"":""thermometer""}},""_row_num"":171},{""choice_list_name"":""component"",""data_value"":""thermostat"",""display"":{""title"":{""text"":""thermostat""}},""_row_num"":172},{""choice_list_name"":""component"",""data_value"":""thermostat control card"",""display"":{""title"":{""text"":""thermostat control card""}},""_row_num"":173},{""choice_list_name"":""component"",""data_value"":""thermostat sensor lead"",""display"":{""title"":{""text"":""thermostat sensor lead""}},""_row_num"":174},{""choice_list_name"":""component"",""data_value"":""thermostat wiring"",""display"":{""title"":{""text"":""thermostat wiring""}},""_row_num"":175},{""choice_list_name"":""component"",""data_value"":""30-DTR"",""display"":{""title"":{""text"":""30-DTR""}},""_row_num"":176},{""choice_list_name"":""component"",""data_value"":""transformer"",""display"":{""title"":{""text"":""transformer""}},""_row_num"":177},{""choice_list_name"":""component"",""data_value"":""ventilation grill"",""display"":{""title"":{""text"":""ventilation grill""}},""_row_num"":178},{""choice_list_name"":""component"",""data_value"":""voltage stabilizer"",""display"":{""title"":{""text"":""voltage stabilizer""}},""_row_num"":179},{""choice_list_name"":""component"",""data_value"":""water pack"",""display"":{""title"":{""text"":""water pack""}},""_row_num"":180},{""choice_list_name"":""component"",""data_value"":""wicks"",""display"":{""title"":{""text"":""wicks""}},""_row_num"":181},{""choice_list_name"":""component"",""data_value"":""wiring"",""display"":{""title"":{""text"":""wiring""}},""_row_num"":182},{""choice_list_name"":""component"",""data_value"":""wiring connections"",""display"":{""title"":{""text"":""wiring connections""}},""_row_num"":183},{""choice_list_name"":""component"",""data_value"":""wiring terminals"",""display"":{""title"":{""text"":""wiring terminals""}},""_row_num"":184},{""choice_list_name"":""component"",""data_value"":""unknown"",""display"":{""title"":{""text"":""unknown""}},""_row_num"":185}]"
Column,condensation_drain_problems,displayChoicesList,object,"[{""choice_list_name"":""yesno"",""data_value"":""yes"",""display"":{""title"":{""text"":""yes""}},""_row_num"":2},{""choice_list_name"":""yesno"",""data_value"":""no"",""display"":{""title"":{""text"":""no""}},""_row_num"":3}]"
Column,corrosion_refrigerator,displayChoicesList,object,"[{""choice_list_name"":""yesno"",""data_value"":""yes"",""display"":{""title"":{""text"":""yes""}},""_row_num"":2},{""choice_list_name"":""yesno"",""data_value"":""no"",""display"":{""title"":{""text"":""no""}},""_row_num"":3}]"
Column,door_hinges_loose,displayChoicesList,object,"[{""choice_list_name"":""yesno"",""data_value"":""yes"",""display"":{""title"":{""text"":""yes""}},""_row_num"":2},{""choice_list_name"":""yesno"",""data_value"":""no"",""display"":{""title"":{""text"":""no""}},""_row_num"":3}]"
Column,failure_cause_1,displayChoicesList,object,"[{""choice_list_name"":""failure_cause_1"",""data_value"":""break"",""display"":{""title"":{""text"":""break""}},""_row_num"":187},{""choice_list_name"":""failure_cause_1"",""data_value"":""build quality"",""display"":{""title"":{""text"":""build quality""}},""_row_num"":188},{""choice_list_name"":""failure_cause_1"",""data_value"":""corrosion"",""display"":{""title"":{""text"":""corrosion""}},""_row_num"":189},{""choice_list_name"":""failure_cause_1"",""data_value"":""damage"",""display"":{""title"":{""text"":""damage""}},""_row_num"":190},{""choice_list_name"":""failure_cause_1"",""data_value"":""degradation"",""display"":{""title"":{""text"":""degradation""}},""_row_num"":191},{""choice_list_name"":""failure_cause_1"",""data_value"":""disintegration"",""display"":{""title"":{""text"":""disintegration""}},""_row_num"":192},{""choice_list_name"":""failure_cause_1"",""data_value"":""hot spot"",""display"":{""title"":{""text"":""hot spot""}},""_row_num"":193},{""choice_list_name"":""failure_cause_1"",""data_value"":""incomplete"",""display"":{""title"":{""text"":""incomplete""}},""_row_num"":194},{""choice_list_name"":""failure_cause_1"",""data_value"":""insufficient capacity"",""display"":{""title"":{""text"":""insufficient capacity""}},""_row_num"":195},{""choice_list_name"":""failure_cause_1"",""data_value"":""lack of maintenance"",""display"":{""title"":{""text"":""lack of maintenance""}},""_row_num"":196},{""choice_list_name"":""failure_cause_1"",""data_value"":""leak"",""display"":{""title"":{""text"":""leak""}},""_row_num"":197},{""choice_list_name"":""failure_cause_1"",""data_value"":""missing"",""display"":{""title"":{""text"":""missing""}},""_row_num"":198},{""choice_list_name"":""failure_cause_1"",""data_value"":""misplacement"",""display"":{""title"":{""text"":""misplacement""}},""_row_num"":199},{""choice_list_name"":""failure_cause_1"",""data_value"":""open circuit"",""display"":{""title"":{""text"":""open circuit""}},""_row_num"":200},{""choice_list_name"":""failure_cause_1"",""data_value"":""orientation"",""display"":{""title"":{""text"":""orientation""}},""_row_num"":201},{""choice_list_name"":""failure_cause_1"",""data_value"":""outage"",""display"":{""title"":{""text"":""outage""}},""_row_num"":202},{""choice_list_name"":""failure_cause_1"",""data_value"":""power quality"",""display"":{""title"":{""text"":""power quality""}},""_row_num"":203},{""choice_list_name"":""failure_cause_1"",""data_value"":""power tampering"",""display"":{""title"":{""text"":""power tampering""}},""_row_num"":204},{""choice_list_name"":""failure_cause_1"",""data_value"":""shading"",""display"":{""title"":{""text"":""shading""}},""_row_num"":205},{""choice_list_name"":""failure_cause_1"",""data_value"":""short circuit"",""display"":{""title"":{""text"":""short circuit""}},""_row_num"":206},{""choice_list_name"":""failure_cause_1"",""data_value"":""soiling"",""display"":{""title"":{""text"":""soiling""}},""_row_num"":207},{""choice_list_name"":""failure_cause_1"",""data_value"":""tampering"",""display"":{""title"":{""text"":""tampering""}},""_row_num"":208},{""choice_list_name"":""failure_cause_1"",""data_value"":""unauthorized use"",""display"":{""title"":{""text"":""unauthorized use""}},""_row_num"":209},{""choice_list_name"":""failure_cause_1"",""data_value"":""ultraviolet degradation"",""display"":{""title"":{""text"":""ultraviolet degradation""}},""_row_num"":210},{""choice_list_name"":""failure_cause_1"",""data_value"":""voltage (low)"",""display"":{""title"":{""text"":""voltage (low)""}},""_row_num"":211},{""choice_list_name"":""failure_cause_1"",""data_value"":""unknown"",""display"":{""title"":{""text"":""unknown""}},""_row_num"":212}]"
Column,failure_cause_2,displayChoicesList,object,"[{""choice_list_name"":""failure_cause_2"",""data_value"":""abuse"",""display"":{""title"":{""text"":""abuse""}},""_row_num"":214},{""choice_list_name"":""failure_cause_2"",""data_value"":""factory concealed"",""display"":{""title"":{""text"":""factory concealed""}},""_row_num"":215},{""choice_list_name"":""failure_cause_2"",""data_value"":""factory observable"",""display"":{""title"":{""text"":""factory observable""}},""_row_num"":216},{""choice_list_name"":""failure_cause_2"",""data_value"":""impact"",""display"":{""title"":{""text"":""impact""}},""_row_num"":217},{""choice_list_name"":""failure_cause_2"",""data_value"":""insect"",""display"":{""title"":{""text"":""insect""}},""_row_num"":218},{""choice_list_name"":""failure_cause_2"",""data_value"":""installation"",""display"":{""title"":{""text"":""installation""}},""_row_num"":219},{""choice_list_name"":""failure_cause_2"",""data_value"":""misuse"",""display"":{""title"":{""text"":""misuse""}},""_row_num"":220},{""choice_list_name"":""failure_cause_2"",""data_value"":""rodent"",""display"":{""title"":{""text"":""rodent""}},""_row_num"":221},{""choice_list_name"":""failure_cause_2"",""data_value"":""shipping handling"",""display"":{""title"":{""text"":""shipping handling""}},""_row_num"":222},{""choice_list_name"":""failure_cause_2"",""data_value"":""shipping sea freight"",""display"":{""title"":{""text"":""shipping sea freight""}},""_row_num"":223},{""choice_list_name"":""failure_cause_2"",""data_value"":""shipping trucking"",""display"":{""title"":{""text"":""shipping trucking""}},""_row_num"":224},{""choice_list_name"":""failure_cause_2"",""data_value"":""shipping storage"",""display"":{""title"":{""text"":""shipping storage""}},""_row_num"":225},{""choice_list_name"":""failure_cause_2"",""data_value"":""sunlight"",""display"":{""title"":{""text"":""sunlight""}},""_row_num"":226},{""choice_list_name"":""failure_cause_2"",""data_value"":""water"",""display"":{""title"":{""text"":""water""}},""_row_num"":227},{""choice_list_name"":""failure_cause_2"",""data_value"":""unknown"",""display"":{""title"":{""text"":""unknown""}},""_row_num"":228}]"
Column,fan_working_electronic_compartment,displayChoicesList,object,"[{""choice_list_name"":""yesno"",""data_value"":""yes"",""display"":{""title"":{""text"":""yes""}},""_row_num"":2},{""choice_list_name"":""yesno"",""data_value"":""no"",""display"":{""title"":{""text"":""no""}},""_row_num"":3}]"
Column,gasket_damage,displayChoicesList,object,"[{""choice_list_name"":""yesno"",""data_value"":""yes"",""display"":{""title"":{""text"":""yes""}},""_row_num"":2},{""choice_list_name"":""yesno"",""data_value"":""no"",""display"":{""title"":{""text"":""no""}},""_row_num"":3}]"
Column,ice_liner_intact,displayChoicesList,object,"[{""choice_list_name"":""iceliner_intact"",""data_value"":""Yes, the ice liner is intact and in the correct place"",""display"":{""title"":{""text"":""Yes, the ice liner is intact and in the correct place""}},""_row_num"":87},{""choice_list_name"":""iceliner_intact"",""data_value"":""No, the ice liner is not intact and/or not in the correct place"",""display"":{""title"":{""text"":""No, the ice liner is not intact and/or not in the correct place""}},""_row_num"":88},{""choice_list_name"":""iceliner_intact"",""data_value"":""This refrigerator is not designed to operate with an ice liner"",""display"":{""title"":{""text"":""This refrigerator is not designed to operate with an ice liner""}},""_row_num"":89},{""choice_list_name"":""iceliner_intact"",""data_value"":""Unknown/no information"",""display"":{""title"":{""text"":""Unknown/no information""}},""_row_num"":90}]"
Column,illicit_repairs_electronic_compartment,displayChoicesList,object,"[{""choice_list_name"":""yesno"",""data_value"":""yes"",""display"":{""title"":{""text"":""yes""}},""_row_num"":2},{""choice_list_name"":""yesno"",""data_value"":""no"",""display"":{""title"":{""text"":""no""}},""_row_num"":3}]"
Column,leaks_electronic_compartment,displayChoicesList,object,"[{""choice_list_name"":""yesno"",""data_value"":""yes"",""display"":{""title"":{""text"":""yes""}},""_row_num"":2},{""choice_list_name"":""yesno"",""data_value"":""no"",""display"":{""title"":{""text"":""no""}},""_row_num"":3}]"
Column,main_component_first_reported,displayChoicesList,object,"[{""choice_list_name"":""main_component"",""data_value"":""Not applicable – no build quality issues reported"",""display"":{""title"":{""text"":""Not applicable – no build quality issues reported""}},""_row_num"":42},{""choice_list_name"":""main_component"",""data_value"":""Casing"",""display"":{""title"":{""text"":""Casing""}},""_row_num"":43},{""choice_list_name"":""main_component"",""data_value"":""Base"",""display"":{""title"":{""text"":""Base""}},""_row_num"":44},{""choice_list_name"":""main_component"",""data_value"":""Access cover"",""display"":{""title"":{""text"":""Access cover""}},""_row_num"":45},{""choice_list_name"":""main_component"",""data_value"":""Vents"",""display"":{""title"":{""text"":""Vents""}},""_row_num"":46},{""choice_list_name"":""main_component"",""data_value"":""Condensation drainage"",""display"":{""title"":{""text"":""Condensation drainage""}},""_row_num"":47},{""choice_list_name"":""main_component"",""data_value"":""Power cable(s)"",""display"":{""title"":{""text"":""Power cable(s)""}},""_row_num"":48},{""choice_list_name"":""main_component"",""data_value"":""Handle"",""display"":{""title"":{""text"":""Handle""}},""_row_num"":49},{""choice_list_name"":""main_component"",""data_value"":""Gasket"",""display"":{""title"":{""text"":""Gasket""}},""_row_num"":50},{""choice_list_name"":""main_component"",""data_value"":""Alignment"",""display"":{""title"":{""text"":""Alignment""}},""_row_num"":51},{""choice_list_name"":""main_component"",""data_value"":""Hinges"",""display"":{""title"":{""text"":""Hinges""}},""_row_num"":52},{""choice_list_name"":""main_component"",""data_value"":""Latch/clasp"",""display"":{""title"":{""text"":""Latch/clasp""}},""_row_num"":53},{""choice_list_name"":""main_component"",""data_value"":""Lock/key"",""display"":{""title"":{""text"":""Lock/key""}},""_row_num"":54},{""choice_list_name"":""main_component"",""data_value"":""Keypad"",""display"":{""title"":{""text"":""Keypad""}},""_row_num"":55},{""choice_list_name"":""main_component"",""data_value"":""External temperature display"",""display"":{""title"":{""text"":""External temperature display""}},""_row_num"":56},{""choice_list_name"":""main_component"",""data_value"":""Power switch"",""display"":{""title"":{""text"":""Power switch""}},""_row_num"":57},{""choice_list_name"":""main_component"",""data_value"":""Power LED"",""display"":{""title"":{""text"":""Power LED""}},""_row_num"":58},{""choice_list_name"":""main_component"",""data_value"":""Ice liner/water packs"",""display"":{""title"":{""text"":""Ice liner/water packs""}},""_row_num"":59},{""choice_list_name"":""main_component"",""data_value"":""Shelving/baskets"",""display"":{""title"":{""text"":""Shelving/baskets""}},""_row_num"":60},{""choice_list_name"":""main_component"",""data_value"":""Vaccine compartment walls"",""display"":{""title"":{""text"":""Vaccine compartment walls""}},""_row_num"":61},{""choice_list_name"":""main_component"",""data_value"":""Vaccine compartment bottom"",""display"":{""title"":{""text"":""Vaccine compartment bottom""}},""_row_num"":62},{""choice_list_name"":""main_component"",""data_value"":""Grate"",""display"":{""title"":{""text"":""Grate""}},""_row_num"":63},{""choice_list_name"":""main_component"",""data_value"":""Drain"",""display"":{""title"":{""text"":""Drain""}},""_row_num"":64},{""choice_list_name"":""main_component"",""data_value"":""Thermostat sensor/external display sensor"",""display"":{""title"":{""text"":""Thermostat sensor/external display sensor""}},""_row_num"":65},{""choice_list_name"":""main_component"",""data_value"":""Sensor mount or seal"",""display"":{""title"":{""text"":""Sensor mount or seal""}},""_row_num"":66},{""choice_list_name"":""main_component"",""data_value"":""Base plate"",""display"":{""title"":{""text"":""Base plate""}},""_row_num"":67},{""choice_list_name"":""main_component"",""data_value"":""Fan"",""display"":{""title"":{""text"":""Fan""}},""_row_num"":68},{""choice_list_name"":""main_component"",""data_value"":""Compressor"",""display"":{""title"":{""text"":""Compressor""}},""_row_num"":69},{""choice_list_name"":""main_component"",""data_value"":""Compressor controller/starting device"",""display"":{""title"":{""text"":""Compressor controller/starting device""}},""_row_num"":70},{""choice_list_name"":""main_component"",""data_value"":""Piping"",""display"":{""title"":{""text"":""Piping""}},""_row_num"":71},{""choice_list_name"":""main_component"",""data_value"":""Thermostat controller"",""display"":{""title"":{""text"":""Thermostat controller""}},""_row_num"":72},{""choice_list_name"":""main_component"",""data_value"":""Internal condenser"",""display"":{""title"":{""text"":""Internal condenser""}},""_row_num"":73},{""choice_list_name"":""main_component"",""data_value"":""External condenser"",""display"":{""title"":{""text"":""External condenser""}},""_row_num"":74},{""choice_list_name"":""main_component"",""data_value"":""Filter dryer"",""display"":{""title"":{""text"":""Filter dryer""}},""_row_num"":75},{""choice_list_name"":""main_component"",""data_value"":""Capillary"",""display"":{""title"":{""text"":""Capillary""}},""_row_num"":76},{""choice_list_name"":""main_component"",""data_value"":""Starting capacitor"",""display"":{""title"":{""text"":""Starting capacitor""}},""_row_num"":77},{""choice_list_name"":""main_component"",""data_value"":""Solar panels"",""display"":{""title"":{""text"":""Solar panels""}},""_row_num"":78},{""choice_list_name"":""main_component"",""data_value"":""Solar array support structure/mounting"",""display"":{""title"":{""text"":""Solar array support structure/mounting""}},""_row_num"":79},{""choice_list_name"":""main_component"",""data_value"":""Solar battery"",""display"":{""title"":{""text"":""Solar battery""}},""_row_num"":80},{""choice_list_name"":""main_component"",""data_value"":""Solar wiring"",""display"":{""title"":{""text"":""Solar wiring""}},""_row_num"":81}]"
Column,main_component_second_reported,displayChoicesList,object,"[{""choice_list_name"":""main_component"",""data_value"":""Not applicable – no build quality issues reported"",""display"":{""title"":{""text"":""Not applicable – no build quality issues reported""}},""_row_num"":42},{""choice_list_name"":""main_component"",""data_value"":""Casing"",""display"":{""title"":{""text"":""Casing""}},""_row_num"":43},{""choice_list_name"":""main_component"",""data_value"":""Base"",""display"":{""title"":{""text"":""Base""}},""_row_num"":44},{""choice_list_name"":""main_component"",""data_value"":""Access cover"",""display"":{""title"":{""text"":""Access cover""}},""_row_num"":45},{""choice_list_name"":""main_component"",""data_value"":""Vents"",""display"":{""title"":{""text"":""Vents""}},""_row_num"":46},{""choice_list_name"":""main_component"",""data_value"":""Condensation drainage"",""display"":{""title"":{""text"":""Condensation drainage""}},""_row_num"":47},{""choice_list_name"":""main_component"",""data_value"":""Power cable(s)"",""display"":{""title"":{""text"":""Power cable(s)""}},""_row_num"":48},{""choice_list_name"":""main_component"",""data_value"":""Handle"",""display"":{""title"":{""text"":""Handle""}},""_row_num"":49},{""choice_list_name"":""main_component"",""data_value"":""Gasket"",""display"":{""title"":{""text"":""Gasket""}},""_row_num"":50},{""choice_list_name"":""main_component"",""data_value"":""Alignment"",""display"":{""title"":{""text"":""Alignment""}},""_row_num"":51},{""choice_list_name"":""main_component"",""data_value"":""Hinges"",""display"":{""title"":{""text"":""Hinges""}},""_row_num"":52},{""choice_list_name"":""main_component"",""data_value"":""Latch/clasp"",""display"":{""title"":{""text"":""Latch/clasp""}},""_row_num"":53},{""choice_list_name"":""main_component"",""data_value"":""Lock/key"",""display"":{""title"":{""text"":""Lock/key""}},""_row_num"":54},{""choice_list_name"":""main_component"",""data_value"":""Keypad"",""display"":{""title"":{""text"":""Keypad""}},""_row_num"":55},{""choice_list_name"":""main_component"",""data_value"":""External temperature display"",""display"":{""title"":{""text"":""External temperature display""}},""_row_num"":56},{""choice_list_name"":""main_component"",""data_value"":""Power switch"",""display"":{""title"":{""text"":""Power switch""}},""_row_num"":57},{""choice_list_name"":""main_component"",""data_value"":""Power LED"",""display"":{""title"":{""text"":""Power LED""}},""_row_num"":58},{""choice_list_name"":""main_component"",""data_value"":""Ice liner/water packs"",""display"":{""title"":{""text"":""Ice liner/water packs""}},""_row_num"":59},{""choice_list_name"":""main_component"",""data_value"":""Shelving/baskets"",""display"":{""title"":{""text"":""Shelving/baskets""}},""_row_num"":60},{""choice_list_name"":""main_component"",""data_value"":""Vaccine compartment walls"",""display"":{""title"":{""text"":""Vaccine compartment walls""}},""_row_num"":61},{""choice_list_name"":""main_component"",""data_value"":""Vaccine compartment bottom"",""display"":{""title"":{""text"":""Vaccine compartment bottom""}},""_row_num"":62},{""choice_list_name"":""main_component"",""data_value"":""Grate"",""display"":{""title"":{""text"":""Grate""}},""_row_num"":63},{""choice_list_name"":""main_component"",""data_value"":""Drain"",""display"":{""title"":{""text"":""Drain""}},""_row_num"":64},{""choice_list_name"":""main_component"",""data_value"":""Thermostat sensor/external display sensor"",""display"":{""title"":{""text"":""Thermostat sensor/external display sensor""}},""_row_num"":65},{""choice_list_name"":""main_component"",""data_value"":""Sensor mount or seal"",""display"":{""title"":{""text"":""Sensor mount or seal""}},""_row_num"":66},{""choice_list_name"":""main_component"",""data_value"":""Base plate"",""display"":{""title"":{""text"":""Base plate""}},""_row_num"":67},{""choice_list_name"":""main_component"",""data_value"":""Fan"",""display"":{""title"":{""text"":""Fan""}},""_row_num"":68},{""choice_list_name"":""main_component"",""data_value"":""Compressor"",""display"":{""title"":{""text"":""Compressor""}},""_row_num"":69},{""choice_list_name"":""main_component"",""data_value"":""Compressor controller/starting device"",""display"":{""title"":{""text"":""Compressor controller/starting device""}},""_row_num"":70},{""choice_list_name"":""main_component"",""data_value"":""Piping"",""display"":{""title"":{""text"":""Piping""}},""_row_num"":71},{""choice_list_name"":""main_component"",""data_value"":""Thermostat controller"",""display"":{""title"":{""text"":""Thermostat controller""}},""_row_num"":72},{""choice_list_name"":""main_component"",""data_value"":""Internal condenser"",""display"":{""title"":{""text"":""Internal condenser""}},""_row_num"":73},{""choice_list_name"":""main_component"",""data_value"":""External condenser"",""display"":{""title"":{""text"":""External condenser""}},""_row_num"":74},{""choice_list_name"":""main_component"",""data_value"":""Filter dryer"",""display"":{""title"":{""text"":""Filter dryer""}},""_row_num"":75},{""choice_list_name"":""main_component"",""data_value"":""Capillary"",""display"":{""title"":{""text"":""Capillary""}},""_row_num"":76},{""choice_list_name"":""main_component"",""data_value"":""Starting capacitor"",""display"":{""title"":{""text"":""Starting capacitor""}},""_row_num"":77},{""choice_list_name"":""main_component"",""data_value"":""Solar panels"",""display"":{""title"":{""text"":""Solar panels""}},""_row_num"":78},{""choice_list_name"":""main_component"",""data_value"":""Solar array support structure/mounting"",""display"":{""title"":{""text"":""Solar array support structure/mounting""}},""_row_num"":79},{""choice_list_name"":""main_component"",""data_value"":""Solar battery"",""display"":{""title"":{""text"":""Solar battery""}},""_row_num"":80},{""choice_list_name"":""main_component"",""data_value"":""Solar wiring"",""display"":{""title"":{""text"":""Solar wiring""}},""_row_num"":81}]"
Column,main_component_third_reported,displayChoicesList,object,"[{""choice_list_name"":""main_component"",""data_value"":""Not applicable – no build quality issues reported"",""display"":{""title"":{""text"":""Not applicable – no build quality issues reported""}},""_row_num"":42},{""choice_list_name"":""main_component"",""data_value"":""Casing"",""display"":{""title"":{""text"":""Casing""}},""_row_num"":43},{""choice_list_name"":""main_component"",""data_value"":""Base"",""display"":{""title"":{""text"":""Base""}},""_row_num"":44},{""choice_list_name"":""main_component"",""data_value"":""Access cover"",""display"":{""title"":{""text"":""Access cover""}},""_row_num"":45},{""choice_list_name"":""main_component"",""data_value"":""Vents"",""display"":{""title"":{""text"":""Vents""}},""_row_num"":46},{""choice_list_name"":""main_component"",""data_value"":""Condensation drainage"",""display"":{""title"":{""text"":""Condensation drainage""}},""_row_num"":47},{""choice_list_name"":""main_component"",""data_value"":""Power cable(s)"",""display"":{""title"":{""text"":""Power cable(s)""}},""_row_num"":48},{""choice_list_name"":""main_component"",""data_value"":""Handle"",""display"":{""title"":{""text"":""Handle""}},""_row_num"":49},{""choice_list_name"":""main_component"",""data_value"":""Gasket"",""display"":{""title"":{""text"":""Gasket""}},""_row_num"":50},{""choice_list_name"":""main_component"",""data_value"":""Alignment"",""display"":{""title"":{""text"":""Alignment""}},""_row_num"":51},{""choice_list_name"":""main_component"",""data_value"":""Hinges"",""display"":{""title"":{""text"":""Hinges""}},""_row_num"":52},{""choice_list_name"":""main_component"",""data_value"":""Latch/clasp"",""display"":{""title"":{""text"":""Latch/clasp""}},""_row_num"":53},{""choice_list_name"":""main_component"",""data_value"":""Lock/key"",""display"":{""title"":{""text"":""Lock/key""}},""_row_num"":54},{""choice_list_name"":""main_component"",""data_value"":""Keypad"",""display"":{""title"":{""text"":""Keypad""}},""_row_num"":55},{""choice_list_name"":""main_component"",""data_value"":""External temperature display"",""display"":{""title"":{""text"":""External temperature display""}},""_row_num"":56},{""choice_list_name"":""main_component"",""data_value"":""Power switch"",""display"":{""title"":{""text"":""Power switch""}},""_row_num"":57},{""choice_list_name"":""main_component"",""data_value"":""Power LED"",""display"":{""title"":{""text"":""Power LED""}},""_row_num"":58},{""choice_list_name"":""main_component"",""data_value"":""Ice liner/water packs"",""display"":{""title"":{""text"":""Ice liner/water packs""}},""_row_num"":59},{""choice_list_name"":""main_component"",""data_value"":""Shelving/baskets"",""display"":{""title"":{""text"":""Shelving/baskets""}},""_row_num"":60},{""choice_list_name"":""main_component"",""data_value"":""Vaccine compartment walls"",""display"":{""title"":{""text"":""Vaccine compartment walls""}},""_row_num"":61},{""choice_list_name"":""main_component"",""data_value"":""Vaccine compartment bottom"",""display"":{""title"":{""text"":""Vaccine compartment bottom""}},""_row_num"":62},{""choice_list_name"":""main_component"",""data_value"":""Grate"",""display"":{""title"":{""text"":""Grate""}},""_row_num"":63},{""choice_list_name"":""main_component"",""data_value"":""Drain"",""display"":{""title"":{""text"":""Drain""}},""_row_num"":64},{""choice_list_name"":""main_component"",""data_value"":""Thermostat sensor/external display sensor"",""display"":{""title"":{""text"":""Thermostat sensor/external display sensor""}},""_row_num"":65},{""choice_list_name"":""main_component"",""data_value"":""Sensor mount or seal"",""display"":{""title"":{""text"":""Sensor mount or seal""}},""_row_num"":66},{""choice_list_name"":""main_component"",""data_value"":""Base plate"",""display"":{""title"":{""text"":""Base plate""}},""_row_num"":67},{""choice_list_name"":""main_component"",""data_value"":""Fan"",""display"":{""title"":{""text"":""Fan""}},""_row_num"":68},{""choice_list_name"":""main_component"",""data_value"":""Compressor"",""display"":{""title"":{""text"":""Compressor""}},""_row_num"":69},{""choice_list_name"":""main_component"",""data_value"":""Compressor controller/starting device"",""display"":{""title"":{""text"":""Compressor controller/starting device""}},""_row_num"":70},{""choice_list_name"":""main_component"",""data_value"":""Piping"",""display"":{""title"":{""text"":""Piping""}},""_row_num"":71},{""choice_list_name"":""main_component"",""data_value"":""Thermostat controller"",""display"":{""title"":{""text"":""Thermostat controller""}},""_row_num"":72},{""choice_list_name"":""main_component"",""data_value"":""Internal condenser"",""display"":{""title"":{""text"":""Internal condenser""}},""_row_num"":73},{""choice_list_name"":""main_component"",""data_value"":""External condenser"",""display"":{""title"":{""text"":""External condenser""}},""_row_num"":74},{""choice_list_name"":""main_component"",""data_value"":""Filter dryer"",""display"":{""title"":{""text"":""Filter dryer""}},""_row_num"":75},{""choice_list_name"":""main_component"",""data_value"":""Capillary"",""display"":{""title"":{""text"":""Capillary""}},""_row_num"":76},{""choice_list_name"":""main_component"",""data_value"":""Starting capacitor"",""display"":{""title"":{""text"":""Starting capacitor""}},""_row_num"":77},{""choice_list_name"":""main_component"",""data_value"":""Solar panels"",""display"":{""title"":{""text"":""Solar panels""}},""_row_num"":78},{""choice_list_name"":""main_component"",""data_value"":""Solar array support structure/mounting"",""display"":{""title"":{""text"":""Solar array support structure/mounting""}},""_row_num"":79},{""choice_list_name"":""main_component"",""data_value"":""Solar battery"",""display"":{""title"":{""text"":""Solar battery""}},""_row_num"":80},{""choice_list_name"":""main_component"",""data_value"":""Solar wiring"",""display"":{""title"":{""text"":""Solar wiring""}},""_row_num"":81}]"
Column,physical_damage_voltage_stabilizer,displayChoicesList,object,"[{""choice_list_name"":""yesno"",""data_value"":""yes"",""display"":{""title"":{""text"":""yes""}},""_row_num"":2},{""choice_list_name"":""yesno"",""data_value"":""no"",""display"":{""title"":{""text"":""no""}},""_row_num"":3}]"
Column,power_cable_damage,displayChoicesList,object,"[{""choice_list_name"":""yesno"",""data_value"":""yes"",""display"":{""title"":{""text"":""yes""}},""_row_num"":2},{""choice_list_name"":""yesno"",""data_value"":""no"",""display"":{""title"":{""text"":""no""}},""_row_num"":3}]"
Column,power_led_on_refrigerator,displayChoicesList,object,"[{""choice_list_name"":""yes_no_unable"",""data_value"":""yes"",""display"":{""title"":{""text"":""yes""}},""_row_num"":83},{""choice_list_name"":""yes_no_unable"",""data_value"":""no"",""display"":{""title"":{""text"":""no""}},""_row_num"":84},{""choice_list_name"":""yes_no_unable"",""data_value"":""unable to determine"",""display"":{""title"":{""text"":""unable to determine""}},""_row_num"":85}]"
Column,problems_connections_voltage_stabilizer,displayChoicesList,object,"[{""choice_list_name"":""problems_with_connection"",""data_value"":""loose connection"",""display"":{""title"":{""text"":""loose connection""}},""_row_num"":96},{""choice_list_name"":""problems_with_connection"",""data_value"":""cable damage"",""display"":{""title"":{""text"":""cable damage""}},""_row_num"":97},{""choice_list_name"":""problems_with_connection"",""data_value"":""plug/receptacle damage"",""display"":{""title"":{""text"":""plug/receptacle damage""}},""_row_num"":98},{""choice_list_name"":""problems_with_connection"",""data_value"":""refrigerator plug type and voltage stabilizer receptacle type mismatched"",""display"":{""title"":{""text"":""refrigerator plug type and voltage stabilizer receptacle type mismatched""}},""_row_num"":99}]"
Column,refrigerator_cleaned,displayChoicesList,object,"[{""choice_list_name"":""time"",""data_value"":""weekly"",""display"":{""title"":{""text"":""weekly""}},""_row_num"":33},{""choice_list_name"":""time"",""data_value"":""monthly"",""display"":{""title"":{""text"":""monthly""}},""_row_num"":34},{""choice_list_name"":""time"",""data_value"":""yearly"",""display"":{""title"":{""text"":""yearly""}},""_row_num"":35},{""choice_list_name"":""time"",""data_value"":""never"",""display"":{""title"":{""text"":""never""}},""_row_num"":36}]"
Column,refrigerator_drained,displayChoicesList,object,"[{""choice_list_name"":""time"",""data_value"":""weekly"",""display"":{""title"":{""text"":""weekly""}},""_row_num"":33},{""choice_list_name"":""time"",""data_value"":""monthly"",""display"":{""title"":{""text"":""monthly""}},""_row_num"":34},{""choice_list_name"":""time"",""data_value"":""yearly"",""display"":{""title"":{""text"":""yearly""}},""_row_num"":35},{""choice_list_name"":""time"",""data_value"":""never"",""display"":{""title"":{""text"":""never""}},""_row_num"":36}]"
Column,refrigerator_exposed,displayChoicesList,object,"[{""choice_list_name"":""yesnou"",""data_value"":""yes"",""display"":{""title"":{""text"":""yes""}},""_row_num"":29},{""choice_list_name"":""yesnou"",""data_value"":""no"",""display"":{""title"":{""text"":""no""}},""_row_num"":30},{""choice_list_name"":""yesnou"",""data_value"":""unknown"",""display"":{""title"":{""text"":""unknown""}},""_row_num"":31}]"
Column,refrigerator_noise_smell,displayChoicesList,object,"[{""choice_list_name"":""yesnou"",""data_value"":""yes"",""display"":{""title"":{""text"":""yes""}},""_row_num"":29},{""choice_list_name"":""yesnou"",""data_value"":""no"",""display"":{""title"":{""text"":""no""}},""_row_num"":30},{""choice_list_name"":""yesnou"",""data_value"":""unknown"",""display"":{""title"":{""text"":""unknown""}},""_row_num"":31}]"
Column,refrigerator_place,displayChoicesList,object,"[{""choice_list_name"":""refrigerator_place"",""data_value"":""bottom of vaccine compartment"",""display"":{""title"":{""text"":""bottom of vaccine compartment""}},""_row_num"":24},{""choice_list_name"":""refrigerator_place"",""data_value"":""walls of vaccine compartment"",""display"":{""title"":{""text"":""walls of vaccine compartment""}},""_row_num"":25},{""choice_list_name"":""refrigerator_place"",""data_value"":""on shelf or basket"",""display"":{""title"":{""text"":""on shelf or basket""}},""_row_num"":26},{""choice_list_name"":""refrigerator_place"",""data_value"":""inside of door"",""display"":{""title"":{""text"":""inside of door""}},""_row_num"":27}]"
Column,refrigerator_ventilation_space,displayChoicesList,object,"[{""choice_list_name"":""yesno"",""data_value"":""yes"",""display"":{""title"":{""text"":""yes""}},""_row_num"":2},{""choice_list_name"":""yesno"",""data_value"":""no"",""display"":{""title"":{""text"":""no""}},""_row_num"":3}]"
Column,repair_solar_system,displayChoicesList,object,"[{""choice_list_name"":""yesno"",""data_value"":""yes"",""display"":{""title"":{""text"":""yes""}},""_row_num"":2},{""choice_list_name"":""yesno"",""data_value"":""no"",""display"":{""title"":{""text"":""no""}},""_row_num"":3}]"
Column,replaced_model_new_device,displayChoicesList,object,"[{""choice_list_name"":""yes_no_unable"",""data_value"":""yes"",""display"":{""title"":{""text"":""yes""}},""_row_num"":83},{""choice_list_name"":""yes_no_unable"",""data_value"":""no"",""display"":{""title"":{""text"":""no""}},""_row_num"":84},{""choice_list_name"":""yes_no_unable"",""data_value"":""unable to determine"",""display"":{""title"":{""text"":""unable to determine""}},""_row_num"":85}]"
Column,replaced_provided_or_purchased,displayChoicesList,object,"[{""choice_list_name"":""provided_or_purchased"",""data_value"":""purchased separately"",""display"":{""title"":{""text"":""provided with refrigerator""}},""_row_num"":92},{""choice_list_name"":""provided_or_purchased"",""data_value"":""purchased separately"",""display"":{""title"":{""text"":""purchased separately""}},""_row_num"":93},{""choice_list_name"":""provided_or_purchased"",""data_value"":""unable to determine"",""display"":{""title"":{""text"":""unable to determine""}},""_row_num"":94}]"
Column,signs_problem_electronic_compartment,displayChoicesList,object,"[{""choice_list_name"":""yesno"",""data_value"":""yes"",""display"":{""title"":{""text"":""yes""}},""_row_num"":2},{""choice_list_name"":""yesno"",""data_value"":""no"",""display"":{""title"":{""text"":""no""}},""_row_num"":3}]"
Column,solar_array_location,displayChoicesList,object,"[{""choice_list_name"":""solar_array_location"",""data_value"":""ground"",""display"":{""title"":{""text"":""ground""}},""_row_num"":38},{""choice_list_name"":""solar_array_location"",""data_value"":""roof"",""display"":{""title"":{""text"":""roof""}},""_row_num"":39},{""choice_list_name"":""solar_array_location"",""data_value"":""pole"",""display"":{""title"":{""text"":""pole""}},""_row_num"":40}]"
Column,solar_panels_cleaned,displayChoicesList,object,"[{""choice_list_name"":""time"",""data_value"":""weekly"",""display"":{""title"":{""text"":""weekly""}},""_row_num"":33},{""choice_list_name"":""time"",""data_value"":""monthly"",""display"":{""title"":{""text"":""monthly""}},""_row_num"":34},{""choice_list_name"":""time"",""data_value"":""yearly"",""display"":{""title"":{""text"":""yearly""}},""_row_num"":35},{""choice_list_name"":""time"",""data_value"":""never"",""display"":{""title"":{""text"":""never""}},""_row_num"":36}]"
Column,solar_system_grounded,displayChoicesList,object,"[{""choice_list_name"":""yesno"",""data_value"":""yes"",""display"":{""title"":{""text"":""yes""}},""_row_num"":2},{""choice_list_name"":""yesno"",""data_value"":""no"",""display"":{""title"":{""text"":""no""}},""_row_num"":3}]"
Column,store_vaccines,displayChoicesList,object,"[{""choice_list_name"":""yesno"",""data_value"":""yes"",""display"":{""title"":{""text"":""yes""}},""_row_num"":2},{""choice_list_name"":""yesno"",""data_value"":""no"",""display"":{""title"":{""text"":""no""}},""_row_num"":3}]"
Column,temperature_alarm_caused,displayChoicesList,object,"[{""choice_list_name"":""yesnou"",""data_value"":""yes"",""display"":{""title"":{""text"":""yes""}},""_row_num"":29},{""choice_list_name"":""yesnou"",""data_value"":""no"",""display"":{""title"":{""text"":""no""}},""_row_num"":30},{""choice_list_name"":""yesnou"",""data_value"":""unknown"",""display"":{""title"":{""text"":""unknown""}},""_row_num"":31}]"
Column,tfa_visit_needed,displayChoicesList,object,"[{""choice_list_name"":""yesno"",""data_value"":""yes"",""display"":{""title"":{""text"":""yes""}},""_row_num"":2},{""choice_list_name"":""yesno"",""data_value"":""no"",""display"":{""title"":{""text"":""no""}},""_row_num"":3}]"
Column,voltage_stabilizer_available_use,displayChoicesList,object,"[{""choice_list_name"":""yesno"",""data_value"":""yes"",""display"":{""title"":{""text"":""yes""}},""_row_num"":2},{""choice_list_name"":""yesno"",""data_value"":""no"",""display"":{""title"":{""text"":""no""}},""_row_num"":3}]"
Column,water_collected_refrigerator,displayChoicesList,object,"[{""choice_list_name"":""yesno"",""data_value"":""yes"",""display"":{""title"":{""text"":""yes""}},""_row_num"":2},{""choice_list_name"":""yesno"",""data_value"":""no"",""display"":{""title"":{""text"":""no""}},""_row_num"":3}]"
FormType,default,FormType.formType,string,SURVEY
SurveyUtil,default,SurveyUtil.formId,string,follow_up
Table,default,defaultViewType,string,LIST
Table,default,detailViewFileName,string,config/tables/follow_up/html/follow_up_detail.html
Table,default,displayName,object,"{""text"":{""en"":""Follow-up"",""hi"":""hindi exampleform"",""default"":""Follow-up""}}"
Table,default,listViewFileName,string,config/tables/follow_up/html/follow_up_list.html
